[gd_resource type="GradientTexture" load_steps=2 format=2]

[sub_resource type="Gradient" id=1]
colors = PoolColorArray( 0, 0, 0.568627, 1, 0.333333, 0, 0, 1 )

[resource]
gradient = SubResource( 1 )
width = 1024
